Loaders · NFLData.jl
…
GitHub
Loaders
The primary purpose of NFLData.jl is to load sports data from the NFL into Julia. All functions that load data into Julia are prefixed with load_*(). All files are loaded in as DataFrames.
To load a data resource into memory, when a load_*() function is called initially, NFLData.jl downloads the data resource as a .parquet, .csv, or .csv.gz file into a Scratch space. From there, NFLData.jl reads the data into memory as a DataFrame. If the data object is referenced again, then the cached file (from the Scratch space) is read into memory, and the file is not redownloaded unless the cache is cleared. For more information on this behavior, see Caching.
Available resources
The data resources available in NFLData.jl are maintained by the nflverse organization (as is this package). These resources are directly stored in a variety of places, but most commonly as releases in the nflverse/nflverse-data repository. These data resources are typically sourced directly from the NFL and its various APIs, but other third party resources are represented as well, such as data from pro-football-reference.com.
For a complete list of what resources are available, consult the {nflreadr} documentation–all load_*() functions from {nflreadr} have been implemented in NFLData.jl, and the arguments are all (approximately) the same.
Some examples are provided below in terms of how to read and query these load_*() functions.
Universal data resources
Many loaders do not take any arguments, and simply load a data resource into a Julia environment. For example, load_players() simply returns all players in the NFL's database, past and present.

julia> load_players()
20753×32 DataFrame
   Row │ status   display_name      first_name  last_name  esb_id     gsis_id     birth_date  college_name          position_group   ⋯       │ String?  String?           String?     String?    String?    String?     String?     String?               String?          ⋯───────┼──────────────────────────────────────────────────────────────────────────────────────────────────────────────────────────────     1 │ RET      'Omar Ellison     'Omar       Ellison    ELL711319  00-0004866  1971-10-08  missing               WR               ⋯     2 │ ACT      A'Shawn Robinson  A'Shawn     Robinson   ROB367960  00-0032889  1995-03-21  Alabama               DL
     3 │ DEV      A.J. Arcuri       A.J.        Arcuri     ARC716900  00-0037845  1997-08-13  Michigan State        OL
     4 │ ACT      A.J. Barner       A.J.        Barner     BAR235889  00-0039793  2002-05-03  Michigan              TE
     5 │ RES      A.J. Bouye        Arlandus    Bouye      BOU651714  00-0030228  1991-08-16  Central Florida       DB               ⋯     6 │ ACT      A.J. Brown        Arthur      Brown      BRO413223  00-0035676  1997-06-30  Mississippi           WR
     7 │ ACT      A.J. Cann         Aaron       Cann       CAN364949  00-0032255  1991-10-03  South Carolina        OL
   ⋮   │    ⋮            ⋮              ⋮           ⋮          ⋮          ⋮           ⋮                ⋮                  ⋮          ⋱ 20748 │ CUT      Zonovan Knight    Zonovan     Knight     KNI764772  00-0037157  2001-04-11  North Carolina State  RB
 20749 │ CUT      Zuri Henry        Zuri        Henry      HEN713594  00-0039689  2000-04-12  Texas-El Paso         OL               ⋯ 20750 │ RET      Zuriel Smith      Zuriel      Smith      SMI828252  00-0022024  1980-01-15  missing               WR
 20751 │ CUT      Zurlon Tipton     Zurlon      Tipton     TIP645432  00-0030855  1989-04-27  Central Michigan      RB
 20752 │ DEV      Zyon Gilbert      Zyon        Gilbert    GIL144859  00-0037373  1999-02-04  Florida Atlantic      DB
 20753 │ ACT      Zyon McCollum     Zyon        McCollum   MCC496223  00-0037268  1999-05-03  Sam Houston State     DB               ⋯                                                                                                     23 columns and 20740 rows omitted
 ```

 ### Queryable by season

 Many loaders can query by season. By default, these loaders will return the most recent season of data.

 ```
 julia> load_pbp() # 2024 season thru week 2
5288×372 DataFrame
  Row │ play_id   game_id          old_game_id  home_team  away_team  season_type  week    posteam  posteam_type  defteam  side_of_f ⋯      │ Float64?  String?          String?      String?    String?    String?      Int32?  String?  String?       String?  String?   ⋯──────┼───────────────────────────────────────────────────────────────────────────────────────────────────────────────────────────────    1 │      1.0  2024_01_ARI_BUF  2024090801   BUF        ARI        REG               1  missing  missing       missing  missing   ⋯    2 │     40.0  2024_01_ARI_BUF  2024090801   BUF        ARI        REG               1  ARI      away          BUF      BUF        
    3 │     61.0  2024_01_ARI_BUF  2024090801   BUF        ARI        REG               1  ARI      away          BUF      ARI        
    4 │     83.0  2024_01_ARI_BUF  2024090801   BUF        ARI        REG               1  ARI      away          BUF      ARI        
    5 │    108.0  2024_01_ARI_BUF  2024090801   BUF        ARI        REG               1  ARI      away          BUF      BUF       ⋯    6 │    133.0  2024_01_ARI_BUF  2024090801   BUF        ARI        REG               1  ARI      away          BUF      BUF        
    7 │    155.0  2024_01_ARI_BUF  2024090801   BUF        ARI        REG               1  ARI      away          BUF      BUF        
  ⋮   │    ⋮             ⋮              ⋮           ⋮          ⋮           ⋮         ⋮        ⋮          ⋮           ⋮           ⋮   ⋱ 5283 │   4187.0  2024_02_TB_DET   2024091503   DET        TB         REG               2  DET      home          TB       TB
 5284 │   4210.0  2024_02_TB_DET   2024091503   DET        TB         REG               2  DET      home          TB       TB        ⋯ 5285 │   4233.0  2024_02_TB_DET   2024091503   DET        TB         REG               2  DET      home          TB       TB
 5286 │   4256.0  2024_02_TB_DET   2024091503   DET        TB         REG               2  DET      home          TB       TB
 5287 │   4279.0  2024_02_TB_DET   2024091503   DET        TB         REG               2  TB       away          DET      TB
 5288 │   4301.0  2024_02_TB_DET   2024091503   DET        TB         REG               2  TB       away          DET      missing   ⋯                                                                                                     362 columns and 5275 rows omitted
You can return a different season of data, if available, by passing in the year to query:

julia> load_pbp(2023)
49665×372 DataFrame
   Row │ play_id   game_id          old_game_id  home_team  away_team  season_type  week    posteam  posteam_type  defteam  side_of_ ⋯       │ Float64?  String?          String?      String?    String?    String?      Int32?  String?  String?       String?  String?  ⋯───────┼──────────────────────────────────────────────────────────────────────────────────────────────────────────────────────────────     1 │      1.0  2023_01_ARI_WAS  2023091007   WAS        ARI        REG               1  missing  missing       missing  missing  ⋯     2 │     39.0  2023_01_ARI_WAS  2023091007   WAS        ARI        REG               1  WAS      home          ARI      ARI       
     3 │     55.0  2023_01_ARI_WAS  2023091007   WAS        ARI        REG               1  WAS      home          ARI      WAS       
     4 │     77.0  2023_01_ARI_WAS  2023091007   WAS        ARI        REG               1  WAS      home          ARI      WAS       
     5 │    102.0  2023_01_ARI_WAS  2023091007   WAS        ARI        REG               1  WAS      home          ARI      WAS      ⋯     6 │    124.0  2023_01_ARI_WAS  2023091007   WAS        ARI        REG               1  WAS      home          ARI      WAS       
     7 │    147.0  2023_01_ARI_WAS  2023091007   WAS        ARI        REG               1  WAS      home          ARI      WAS       
   ⋮   │    ⋮             ⋮              ⋮           ⋮          ⋮           ⋮         ⋮        ⋮          ⋮           ⋮           ⋮  ⋱ 49660 │   4759.0  2023_22_SF_KC    2024021100   KC         SF         POST             22  KC       home          SF       SF        
 49661 │   4791.0  2023_22_SF_KC    2024021100   KC         SF         POST             22  KC       home          SF       SF       ⋯ 49662 │   4813.0  2023_22_SF_KC    2024021100   KC         SF         POST             22  KC       home          SF       SF        
 49663 │   4835.0  2023_22_SF_KC    2024021100   KC         SF         POST             22  KC       home          SF       SF        
 49664 │   4860.0  2023_22_SF_KC    2024021100   KC         SF         POST             22  KC       home          SF       SF        
 49665 │   4881.0  2023_22_SF_KC    2024021100   KC         SF         POST             22  KC       home          SF       missing  ⋯                                                                                                    362 columns and 49652 rows omitted
 ```

 To get data for multiple years, pass a range of years into the function.

 ```
 julia> load_pbp(2022:2023)
99099×372 DataFrame
   Row │ play_id   game_id          old_game_id  home_team  away_team  season_type  week    posteam  posteam_type  defteam  side_of_ ⋯       │ Float64?  String?          String?      String?    String?    String?      Int32?  String?  String?       String?  String?  ⋯───────┼──────────────────────────────────────────────────────────────────────────────────────────────────────────────────────────────     1 │      1.0  2022_01_BAL_NYJ  2022091107   NYJ        BAL        REG               1  missing  missing       missing  missing  ⋯     2 │     43.0  2022_01_BAL_NYJ  2022091107   NYJ        BAL        REG               1  NYJ      home          BAL      BAL       
     3 │     68.0  2022_01_BAL_NYJ  2022091107   NYJ        BAL        REG               1  NYJ      home          BAL      NYJ       
     4 │     89.0  2022_01_BAL_NYJ  2022091107   NYJ        BAL        REG               1  NYJ      home          BAL      NYJ       
     5 │    115.0  2022_01_BAL_NYJ  2022091107   NYJ        BAL        REG               1  NYJ      home          BAL      NYJ      ⋯     6 │    136.0  2022_01_BAL_NYJ  2022091107   NYJ        BAL        REG               1  NYJ      home          BAL      NYJ       
     7 │    172.0  2022_01_BAL_NYJ  2022091107   NYJ        BAL        REG               1  NYJ      home          BAL      NYJ       
   ⋮   │    ⋮             ⋮              ⋮           ⋮          ⋮           ⋮         ⋮        ⋮          ⋮           ⋮           ⋮  ⋱ 99094 │   4759.0  2023_22_SF_KC    2024021100   KC         SF         POST             22  KC       home          SF       SF        
 99095 │   4791.0  2023_22_SF_KC    2024021100   KC         SF         POST             22  KC       home          SF       SF       ⋯ 99096 │   4813.0  2023_22_SF_KC    2024021100   KC         SF         POST             22  KC       home          SF       SF        
 99097 │   4835.0  2023_22_SF_KC    2024021100   KC         SF         POST             22  KC       home          SF       SF        
 99098 │   4860.0  2023_22_SF_KC    2024021100   KC         SF         POST             22  KC       home          SF       SF        
 99099 │   4881.0  2023_22_SF_KC    2024021100   KC         SF         POST             22  KC       home          SF       missing  ⋯                                                                                                    362 columns and 99086 rows omitted
 ```

 To get all years of data for a resource, pass `true` into the function. Be advised that this may take a few seconds.

 ```
julia> load_pbp(true)
1186651×372 DataFrame
     Row │ play_id   game_id          old_game_id  home_team  away_team  season_type  week    posteam  posteam_type  defteam  side_o ⋯         │ Float64?  String?          String?      String?    String?    String?      Int32?  String?  String?       String?  String ⋯─────────┼────────────────────────────────────────────────────────────────────────────────────────────────────────────────────────────       1 │     35.0  1999_01_ARI_PHI  1999091200   PHI        ARI        REG               1  PHI      home          ARI      ARI    ⋯       2 │     60.0  1999_01_ARI_PHI  1999091200   PHI        ARI        REG               1  PHI      home          ARI      PHI     
       3 │     82.0  1999_01_ARI_PHI  1999091200   PHI        ARI        REG               1  PHI      home          ARI      PHI     
       4 │    103.0  1999_01_ARI_PHI  1999091200   PHI        ARI        REG               1  PHI      home          ARI      PHI     
       5 │    126.0  1999_01_ARI_PHI  1999091200   PHI        ARI        REG               1  PHI      home          ARI      PHI    ⋯       6 │    150.0  1999_01_ARI_PHI  1999091200   PHI        ARI        REG               1  PHI      home          ARI      PHI     
       7 │    176.0  1999_01_ARI_PHI  1999091200   PHI        ARI        REG               1  ARI      away          PHI      ARI     
    ⋮    │    ⋮             ⋮              ⋮           ⋮          ⋮           ⋮         ⋮        ⋮          ⋮           ⋮            ⋱ 1186646 │   4187.0  2024_02_TB_DET   2024091503   DET        TB         REG               2  DET      home          TB       TB      
 1186647 │   4210.0  2024_02_TB_DET   2024091503   DET        TB         REG               2  DET      home          TB       TB     ⋯ 1186648 │   4233.0  2024_02_TB_DET   2024091503   DET        TB         REG               2  DET      home          TB       TB      
 1186649 │   4256.0  2024_02_TB_DET   2024091503   DET        TB         REG               2  DET      home          TB       TB      
 1186650 │   4279.0  2024_02_TB_DET   2024091503   DET        TB         REG               2  TB       away          DET      TB      
 1186651 │   4301.0  2024_02_TB_DET   2024091503   DET        TB         REG               2  TB       away          DET      missin ⋯                                                                                                  362 columns and 1186638 rows omitted
 ```
…
